{
    "monitors" : [
        {"filter": "volation"},
        {"fether": "vref_vcc"},
        {"fether": "vref_tmp"},
        {"fether": "vmax"},
        {"fether": "temp_coef"}
    ],
    "workdir": "C:\\Users\\Administrator\\Desktop\\workSpace\\src",
    "nl_filename": "voltage_source_para_1.sp",
    "para_filename": "para_1.sp",

    "space" : [
        {
            "name" : "PARA_R",
            "type" : "discrete",
            "domain" : [19e3, 21e3]
        },
        {
            "name" : "PARA_R_4",
            "type" : "discrete",
            "domain" : [1500, 2500]
        },
        {
            "name" : "PARA_M",
            "type" : "discrete",
            "domain" : [2, 50]
        }
    ]
}